{
    "count": 42,
    "next": "https://datahub-api-dev.london.cloudapps.digital/v3/contact/715e8a58-6515-4d52-a4b5-84cb49566b01/audit?limit=10&offset=10",
    "previous": null,
    "results": [
      {
        "id": 5197,
        "user": {
          "id": "681e4af7-707d-4913-aa44-3551dd83afad",
          "firstName": "Joseph",
          "lastName": "Woof",
          "name": "Joseph Woof",
          "email": "Joseph.Woof@example.com"
        },
        "timestamp": "2022-05-19T12:56:40.204557Z",
        "comment": "",
        "changes": {}
      },
      {
        "id": 5191,
        "user": {
          "id": "681e4af7-707d-4913-aa44-3551dd83afad",
          "firstName": "Joseph",
          "lastName": "Woof",
          "name": "Joseph Woof",
          "email": "Joseph.Woof@example.com"
        },
        "timestamp": "2022-05-18T09:55:36.566382Z",
        "comment": "",
        "changes": {
          "archived": [
            true,
            false
          ],
          "archivedOn": [
            "2022-05-18T09:55:10.111000Z",
            null
          ],
          "archivedReason": [
            "Left the company",
            ""
          ],
          "archivedBy": [
            "Joseph Woof",
            null
          ]
        }
      },
      {
        "id": 5190,
        "user": {
          "id": "681e4af7-707d-4913-aa44-3551dd83afad",
          "firstName": "Joseph",
          "lastName": "Woof",
          "name": "Joseph Woof",
          "email": "Joseph.Woof@example.com"
        },
        "timestamp": "2022-05-18T09:55:10.064213Z",
        "comment": "",
        "changes": {
          "archived": [
            false,
            true
          ]
        }
      },
      {
        "id": 5189,
        "user": {
          "id": "681e4af7-707d-4913-aa44-3551dd83afad",
          "firstName": "Joseph",
          "lastName": "Woof",
          "name": "Joseph Woof",
          "email": "Joseph.Woof@example.com"
        },
        "timestamp": "2022-05-18T09:50:35.811031Z",
        "comment": "",
        "changes": {
          "archived": [
            true,
            false
          ],
          "archivedOn": [
            "2022-05-18T09:50:28.396000Z",
            null
          ],
          "archivedReason": [
            "Left the company",
            ""
          ],
          "archivedBy": [
            "Joseph Woof",
            null
          ]
        }
      },
      {
        "id": 5188,
        "user": {
          "id": "681e4af7-707d-4913-aa44-3551dd83afad",
          "firstName": "Joseph",
          "lastName": "Woof",
          "name": "Joseph Woof",
          "email": "Joseph.Woof@example.com"
        },
        "timestamp": "2022-05-18T09:50:28.355503Z",
        "comment": "",
        "changes": {
          "archived": [
            false,
            true
          ],
          "archivedOn": [
            null,
            "2022-05-18T09:50:28.396000Z"
          ],
          "archivedReason": [
            "",
            "Left the company"
          ],
          "archivedBy": [
            null,
            "Joseph Woof"
          ]
        }
      },
      {
        "id": 5187,
        "user": {
          "id": "681e4af7-707d-4913-aa44-3551dd83afad",
          "firstName": "Joseph",
          "lastName": "Woof",
          "name": "Joseph Woof",
          "email": "Joseph.Woof@example.com"
        },
        "timestamp": "2022-05-18T09:17:31.165403Z",
        "comment": "",
        "changes": {
          "archived": [
            true,
            false
          ],
          "archivedOn": [
            "2022-05-18T09:17:24.069000Z",
            null
          ],
          "archivedReason": [
            "Left the company",
            ""
          ],
          "archivedBy": [
            "Joseph Woof",
            null
          ]
        }
      },
      {
        "id": 5186,
        "user": {
          "id": "681e4af7-707d-4913-aa44-3551dd83afad",
          "firstName": "Joseph",
          "lastName": "Woof",
          "name": "Joseph Woof",
          "email": "Joseph.Woof@example.com"
        },
        "timestamp": "2022-05-18T09:17:24.031741Z",
        "comment": "",
        "changes": {
          "archived": [
            false,
            true
          ],
          "archivedOn": [
            null,
            "2022-05-18T09:17:24.069000Z"
          ],
          "archivedReason": [
            "",
            "Left the company"
          ],
          "archivedBy": [
            null,
            "Joseph Woof"
          ]
        }
      },
      {
        "id": 5164,
        "user": {
          "id": "681e4af7-707d-4913-aa44-3551dd83afad",
          "firstName": "Joseph",
          "lastName": "Woof",
          "name": "Joseph Woof",
          "email": "Joseph.Woof@example.com"
        },
        "timestamp": "2022-05-17T14:28:10.289939Z",
        "comment": "",
        "changes": {
          "archived": [
            true,
            false
          ],
          "archivedOn": [
            "2022-05-17T14:28:01.669000Z",
            null
          ],
          "archivedReason": [
            "Left the company",
            ""
          ],
          "archivedBy": [
            "Joseph Woof",
            null
          ]
        }
      },
      {
        "id": 5163,
        "user": {
          "id": "681e4af7-707d-4913-aa44-3551dd83afad",
          "firstName": "Joseph",
          "lastName": "Woof",
          "name": "Joseph Woof",
          "email": "Joseph.Woof@example.com"
        },
        "timestamp": "2022-05-17T14:28:01.626888Z",
        "comment": "",
        "changes": {
          "archived": [
            false,
            true
          ],
          "archivedOn": [
            null,
            "2022-05-17T14:28:01.669000Z"
          ],
          "archivedReason": [
            "",
            "Left the company"
          ],
          "archivedBy": [
            null,
            "Joseph Woof"
          ]
        }
      },
      {
        "id": 5162,
        "user": {
          "id": "681e4af7-707d-4913-aa44-3551dd83afad",
          "firstName": "Joseph",
          "lastName": "Woof",
          "name": "Joseph Woof",
          "email": "Joseph.Woof@example.com"
        },
        "timestamp": "2022-05-17T14:25:49.099689Z",
        "comment": "",
        "changes": {
          "archived": [
            true,
            false
          ],
          "archivedOn": [
            "2022-05-17T14:23:52.389000Z",
            null
          ],
          "archivedReason": [
            "Left the company",
            ""
          ],
          "archivedBy": [
            "Joseph Woof",
            null
          ]
        }
      }
    ]
  }